…
- The total measured toxicity which will be used to predict
  (total_toxicity)

- Individual columns used for model input (12 congners - gtx4, gtx1,
  etc…)

``` r
library(pspdata)

input_data <- read_psp_data(model_ready=TRUE)

input_data
```

    ## # A tibble: 11,668 × 19
    ##    id    location_id total_toxicity  gtx4  gtx1 dcgtx3  gtx5 dcgtx2   gtx3  gtx2
    ##    <chr> <chr>                <dbl> <dbl> <dbl>  <dbl> <dbl>  <dbl>  <dbl> <dbl>
    ##  1 DMC_… DMC                138.     18.7  37.8      0     0      0 24.6    20.6
    ##  2 Isle… Isleboro             0       0     0        0     0      0  0       0  
    ##  3 MIDG… MIDGIx              15.0     0     0        0     0      0  8.53    0  
    ##  4 PE3M… PE3M                 0       0     0        0     0      0  0       0  
    ##  5 PEN … PEN BB               0       0     0        0     0      0  0       0  
    ##  6 PEN … PEN FIX              0       0     0        0     0      0  0       0  
    ##  7 PENB… PENBB                0.388   0     0        0     0      0  0.388   0  
    ##  8 PENB… PENBB                0       0     0        0     0      0  0       0  
    ##  9 PENF… PENFIX               0.646   0     0        0     0      0  0.646   0  
    ## 10 PENF… PENFIX               0.184   0     0        0     0      0  0.184   0  
    ## # ℹ 11,658 more rows
    ## # ℹ 9 more variables: neo <dbl>, dcstx <dbl>, stx <dbl>, c1 <dbl>, c2 <dbl>,
    ## #   date <date>, classification <dbl>, year <chr>, gap_days <dbl>
…
### Make a forecast list

Combine all of the predictions the model made into a table with their
metadata

``` r
forecast_list <- make_forecast_list(cfg, model$forecast, forecast_mode = FALSE)
  
forecast_list
```

    ## # A tibble: 341 × 13
    ## # Rowwise: 
    ##    version location date       class_bins forecast_start_date forecast_end_date
    ##    <chr>   <chr>    <date>     <chr>      <date>              <date>           
    ##  1 v0.3.1  PSP26.07 2024-07-02 0,10,30,80 2024-07-06          2024-07-12       
    ##  2 v0.3.1  PSP15.25 2024-05-15 0,10,30,80 2024-05-19          2024-05-25       
    ##  3 v0.3.1  PSP12.28 2024-07-30 0,10,30,80 2024-08-03          2024-08-09       
    ##  4 v0.3.1  PSP27.05 2024-05-28 0,10,30,80 2024-06-01          2024-06-07       
    ##  5 v0.3.1  PSP10.29 2024-06-24 0,10,30,80 2024-06-28          2024-07-04       
    ##  6 v0.3.1  PSP11.1  2024-07-01 0,10,30,80 2024-07-05          2024-07-11       
    ##  7 v0.3.1  PSP21.09 2024-08-07 0,10,30,80 2024-08-11          2024-08-17       
    ##  8 v0.3.1  PSP10.33 2024-07-23 0,10,30,80 2024-07-27          2024-08-02       
    ##  9 v0.3.1  PSP25.06 2024-06-25 0,10,30,80 2024-06-29          2024-07-05       
    ## 10 v0.3.1  PSP15.2  2024-07-02 0,10,30,80 2024-07-06          2024-07-12       
    ## # ℹ 331 more rows
    ## # ℹ 7 more variables: actual_class <dbl>, actual_toxicity <dbl>, prob_0 <dbl>,
    ## #   prob_1 <dbl>, prob_2 <dbl>, prob_3 <dbl>, predicted_class <dbl>
…
